Ramen rating
…
variety cant be used (subset of brand?)

# To diverse 
ramen_ratings %>% count(variety, sort = T)

## # A tibble: 2,971 x 2
##    variety                           n
##    <chr>                         <int>
##  1 Beef                              7
##  2 Chicken                           7
##  3 Miso Ramen                        7
##  4 Yakisoba                          7
##  5 Artificial Chicken                6
##  6 Vegetable                         6
##  7 Artificial Beef Flavor            4
##  8 Artificial Spicy Beef             4
##  9 Chicken Flavor                    4
## 10 Curry Flavour Instant Noodles     4
## #  with 2,961 more rows
…
unnest_tokines

library(tidytext)

ramen_ratigs_processed %>% 
  filter( !is.na(stars)) %>% 
  unnest_tokens(word, variety) %>% 
  #count(word, sort = T)
  group_by( word) %>% 
  summarise( avg_stars= mean(stars) ,
             n = n()
             ) %>% 
  arrange(desc(n))

## # A tibble: 1,738 x 3
##    word    avg_stars     n
##    <chr>       <dbl> <int>
##  1 noodles      3.57   793
##  2 noodle       3.78   659
##  3 instant      3.58   510
##  4 ramen        3.84   484
##  5 flavour      3.61   459
##  6 flavor       3.68   407
##  7 chicken      3.43   378
##  8 spicy        3.74   349
##  9 beef         3.57   276
## 10 soup         3.61   259
## #  with 1,728 more rows
…
